can you talk about eligible electron account for draw,
give me info on electron account eligible for draw,
please provide eligible electron account for draw,
I am eligible for draw,
can I get into monthly draw with my Electron account,
is Electron account balance eligible for draw,
I want to know if electron account is eligible for draw,
eligible electron account draw,
is my electron account eligible for draw,
can you help me with information on eligible electron account for draw,
i am interested in eligible electron account for draw,
i am looking for eligible electron account for draw,
show me eligible electron account for draw,
Interested in eligible electron account for draw,
like to know if my electron account eligible for draw,
i want to know the eligible electron account for draw,
tell me about electron account eligible for draw,
Electron Account deposits are not eligible for Draw.,
can you talk about eligible banoon children account for draw,
please provide eligible banoon children account for draw,
can you help me with information on eligible banoon children account for draw,
give me info on banoon children account eligible for draw,
i want to know the eligible banoon children account for draw,
eligible banoon children account draw,
I am eligible for draw,
can I get into monthly draw with my investment account,
is investment account balance eligible for draw,
like to know if my banoon children account eligible for draw,
i am looking for eligible banoon children account for draw,
tell me about banoon children account eligible for draw,
is my banoon children account eligible for draw,
show me eligible banoon children account for draw,
Interested in eligible banoon children account for draw,
I want to know if banoon children account is eligible for draw,
i am interested in eligible banoon children account for draw,
Banoon Childrens accounts not eligbile for Draw,
like to know if my savings account sharia compliant,
i am interested in savings account for sharia compliant,
I want to know if savings account is sharia compliant,
show me eligible savings account for sharia compliant,
i want to know the savings account for sharia compliant,
is my savings account sharia compliant,
can you talk about eligible savings account for sharia compliant,
please provide eligible savings account for sharia compliant,
i am looking for savings account for sharia compliant,
is my savings account sharia compliant,
like to know if my savings account sharia compliant,
I want to know if savings account is sharia compliant,
can you help me with information on eligible savings account for sharia compliant,
Interested in savings account for sharia compliant,
tell me about savings account sharia compliant,
savings account sharia compliant,
give me info on savings account sharia compliant,
This investment account is based on the Islamic principle of Mudaraba where you share profits and bear losses as stipulated in the Banking Service Agreement.,
Interested in isic student account for sharia compliant,
is ISIC Student account sharia compliant,
like to know if ISIC Student account is sharia compliant,
i want to know if ISICS student account is sharia compliant ,
can you help me with information on eligible isic student account for sharia compliant,
give me info on isic student account sharia compliant,
i am interested in isic student account for sharia compliant,
please provide isic student account for sharia compliant,
I want to know if isic student account is sharia compliant,
is my isic student account sharia compliant,
can you talk about isic student account for sharia compliant,
tell me about isic student account sharia compliant,
show me isic student account for sharia compliant,
like to know if my isic student account sharia compliant,
i want to know the isic student account for sharia compliant,
i am looking for isic student account for sharia compliant,
isic student account sharia compliant,
Please visit our website for further details.,
like to know if my current account sharia compliant,
tell me about current account sharia compliant,
is my current account sharia compliant,
like to know if my current account is sharia compliant,
I want to know if current account is sharia compliant,
is my current account sharia compliant,
i want to know the current account for sharia compliant,
current account sharia compliant,
I want to know if current account is sharia compliant,
can you talk about current account for sharia compliant,
please provide current account for sharia compliant,
i am interested in current account for sharia compliant,
Interested in current account for sharia compliant,
i am looking for current account for sharia compliant,
show me current account for sharia compliant,
give me info on current account sharia compliant,
can you help me with information on current account for sharia compliant,
This account is based on the Islamic principle of Qard Hasan - where your deposits are considered as a non-profit bearing loan to ADIB. The bank will be obliged to return the lent amount at any time upon the request of the customer.,
can you talk about ghina savings account for sharia compliant,
is my ghina savings account sharia compliant,
please provide ghina savings account for sharia compliant,
I want to know if ghina savings account is sharia compliant,
is  Ghina savings account sharia compliant,
like to know if my Ghina savings account is sharia compliant,
I want to know if Ghina savings account is sharia compliant,
i am interested in ghina savings account for sharia compliant,
can you help me with information on ghina savings account for sharia compliant,
tell me about ghina savings account sharia compliant,
like to know if my ghina savings account sharia compliant,
give me info on ghina savings account sharia compliant,
i am looking for ghina savings account for sharia compliant,
ghina savings account sharia compliant,
show me ghina savings account for sharia compliant,
i want to know the ghina savings account for sharia compliant,
Interested in ghina savings account for sharia compliant,
This investment account is based on the Islamic principle of Mudaraba where you share profits and bear losses as stipulated in the Banking Service Agreement. All prizes granted to the ADIB Ghina Winners shall be exclusively from ADIB’s shareholders funds at the sole discretion of ADIB.,
is my ghina salary account sharia compliant,
i am interested in ghina salary account for sharia compliant,
is my Ghina salary account sharia compliant,
like to know if my Ghina salary account sharia compliant,
I want to know if Ghina salary account is sharia compliant,
Interested in ghina salary account for sharia compliant,
i want to know the ghina salary account for sharia compliant,
I want to know if ghina salary account is sharia compliant,
tell me about ghina salary account sharia compliant,
can you help me with information on ghina salary account for sharia compliant,
show me ghina salary account for sharia compliant,
can you talk about ghina salary account for sharia compliant,
ghina salary account sharia compliant,
give me info on ghina salary account sharia compliant,
please provide ghina salary account for sharia compliant,
like to know if my ghina salary account sharia compliant,
i am looking for ghina salary account for sharia compliant,
This investment account is based on the Islamic principle of Mudaraba where you share profits and bear losses as stipulated in the Banking Service Agreement. ,
i am interested in short term investment account for sharia compliant,
like to know if my short term investment account sharia compliant,
I want to know if short term investment account is sharia compliant,
is my short term investment account sharia compliant,
like to know if short term investment account is sharia compliant,
I want to know if short term investment account is sharia compliant,
can you talk about short term investment account for sharia compliant,
show me short term investment account for sharia compliant,
Interested in short term investment account for sharia compliant,
i am looking for short term investment account for sharia compliant,
i want to know the short term investment account for sharia compliant,
short term investment account sharia compliant,
tell me about short term investment account sharia compliant,
can you help me with information on short term investment account for sharia compliant,
please provide short term investment account for sharia compliant,
is my short term investment account sharia compliant,
give me info on short term investment account sharia compliant,
like to know if my investment deposit account sharia compliant,
is my investment deposit account sharia compliant,
is my investment deposit account sharia compliant,
like to know if my investment deposit account sharia compliant,
I want to know if investment deposit account is sharia compliant,
can you talk about investment deposit account for sharia compliant,
please provide investment deposit account for sharia compliant,
show me investment deposit account for sharia compliant,
can you help me with information on investment deposit account for sharia compliant,
investment deposit account sharia compliant,
I want to know if investment deposit account is sharia compliant,
i am interested in investment deposit account for sharia compliant,
give me info on investment deposit account sharia compliant,
i am looking for investment deposit account for sharia compliant,
Interested in investment deposit account for sharia compliant,
tell me about investment deposit account sharia compliant,
i want to know the investment deposit account for sharia compliant,
This investment account is based on the Islamic principle of Mudaraba where you share profits and bear losses as stipulated in the Banking Service Agreement.,
i want to know the electron account for sharia compliant,
I want to know if electron account is sharia compliant,
is my electron account sharia compliant,
like to know if my electron account sharia compliant,
I want to know if electron account is sharia compliant,
can you help me with information on electron account for sharia compliant,
Interested in electron account for sharia compliant,
please provide electron account for sharia compliant,
electron account sharia compliant,
like to know if my electron account sharia compliant,
tell me about electron account sharia compliant,
give me info on electron account sharia compliant,
show me electron account for sharia compliant,
can you talk about electron account for sharia compliant,
i am interested in electron account for sharia compliant,
i am looking for electron account for sharia compliant,
is my electron account sharia compliant,
This account is based on the Islamic principle of Qard Hasan - where your deposits are considered as a non-profit bearing loan to ADIB. The bank will be obliged to return the lent amount at any time upon the request of the customer. ,
can you talk about banoon children account for sharia compliant,
tell me about banoon children account sharia compliant,
give me info on banoon children account sharia compliant,
i want to know the banoon children account for sharia compliant,
show me banoon children account for sharia compliant,
i am looking for banoon children account for sharia compliant,
like to know if my banoon children account sharia compliant,
I want to know if banoon children account is sharia compliant,
is my banoon children account sharia compliant,
like to know if banoon children account sharia compliant,
I want to know if banoon children account is sharia compliant,
is my banoon children account sharia compliant,
can you help me with information on banoon children account for sharia compliant,
please provide banoon children account for sharia compliant,
Interested in banoon children account for sharia compliant,
banoon children account sharia compliant,
i am interested in banoon children account for sharia compliant,
This investment account is based on the Islamic principle of Mudaraba where you share profits and bear losses as stipulated in the Banking Service Agreement,
can you help me with information on your rewards of ghina savings account,
what are the rewards of Ghina savings account,
Which rewards of Ghina savings account do you offer,
I want to know about rewards of Ghina savings account,
please provide rewards of ghina savings account,
i am interested in rewards of ghina savings account,
can you talk about rewards of ghina savings account,
available rewards of ghina savings account,
kind of available rewards of ghina savings account,
i want to know rewards of ghina savings account,
what rewards do you offer on ghina savings account,
give me rewards of ghina savings account,
what is the rewards possible on ghina savings account,
Which rewards of ghina savings account do you offer,
I want to know about rewards of ghina savings account,
rewards of ghina savings account,
tell me about rewards of ghina savings account,
show me rewards of ghina savings account,
what are the rewards of ghina savings account,
i am looking for rewards of ghina savings account,
"Saving with ADIB Ghina is easy and rewarding - Ghina grand prize of AED 3 million every 4 months. 10 lucky people win AED 10,000 every month!",
can you talk about rewards of ghina salary account,
what are the rewards of Ghina salary account,
what rewards do you offer on Ghina salary account,
tell me about rewards of Ghina salary account,
i am looking for rewards of ghina salary account,
i want to know rewards of ghina salary account,
please provide rewards of ghina salary account,
Which rewards of ghina salary account do you offer,
can you help me with information on your rewards of ghina salary account,
show me rewards of ghina salary account,
rewards of ghina salary account,
give me rewards of ghina salary account,
i am interested in rewards of ghina salary account,
I want to know about rewards of ghina salary account,
available rewards of ghina salary account,
what are the rewards of ghina salary account,
what is the rewards possible on ghina salary account,
kind of available rewards of ghina salary account,
tell me about rewards of ghina salary account,
what rewards do you offer on ghina salary account,
"Ghina Salary Account special rewards - Eligible to participate in Ghina grand prize of AED 3 million every 4 months. Also, Eligible to participate in the monthly draw of 10 lucky winners, win AED 10,000 every month!",
i am looking for schedule of ghina savings account draw,
where can i find the schedule of Ghina savings account draw,
need schedule details of Ghina savings account draw,
please provide schedule of Ghina savings account draw,
please provide schedule of ghina savings account draw,
schedule of ghina savings account draw,
i want to know schedule of ghina savings account draw,
I want to know about draw schedule of ghina savings account,
Where are the schedule of draw ghina savings account,
tell me about schedule of ghina savings account,
i am interested in schedule of ghina savings account draw,
show me schedule of ghina savings account draw,
give me schedule of ghina savings account draw,
recent schedule on ghina savings account,
schedule of draw ghina savings account,
where can i find the schedule of ghina savings account draw,
can you help me with information on schedule of ghina savings account draw,
what schedule do you offer on ghina savings account,
"For more information about the Ghina Salary Account draw schedule and winner list, kindly refer to - https://www.adib.ae/en/Pages/Home_Ghina_Savings_Account.aspx ",
where can i find the schedule of ghina salary account draw,
where can i find the schedule of Ghina salary account draw,
need schedule details of Ghina salary account draw,
please provide schedule of Ghina salary account draw,
i am looking for schedule of ghina salary account draw,
schedule of draw ghina salary account,
what schedule do you offer on ghina salary account,
Where are the schedule of draw ghina salary account,
i am interested in schedule of ghina salary account draw,
please provide schedule of ghina salary account draw,
recent schedule on ghina salary account,
i want to know schedule of ghina salary account draw,
give me schedule of ghina salary account draw,
tell me about schedule of ghina salary account,
schedule of ghina salary account draw,
show me schedule of ghina salary account draw,
I want to know about draw schedule of ghina salary account,
can you help me with information on schedule of ghina salary account draw,
"For information about the Ghina Salary Account draw schedule and winner list, kindly refer to - https://www.adib.ae/en/Pages/Home_Ghina_Savings_Account.aspx ",
show me how it works of ghina savings account,
tell me how Ghina savings account Works,
can you help me with information on how Ghina savings account works,
please provide details on how Ghina savings account works,
how it works on ghina savings account,
please provide info on how it works of ghina savings account,
i want to know how it works of ghina savings account,
how it works of ghina savings account,
where can i find info on how it works of ghina savings account,
how it works ghina savings account,
Where is the info on how it works of ghina savings account,
I want to know about how it works of ghina savings account,
can you help me with information on how it works of ghina savings account,
give me how it works of ghina savings account,
tell me about how it works of ghina savings account,
i am looking for how it works of ghina savings account,
i am interested in how it works of ghina savings account,
"Open a Ghina account with a minimum of AED 20,000 and get your first Ghina draw entry. For every AED 20,000 of your Ghina savings, for one calendar month, you get an extra Ghina draw entry every month. If your balance exceeds AED 250,000 during a full calendar month, you will get an extra Ghina draw coupon for every four coupons. You should have at least four Ghina draw entries to enter the Ghina grand draw, (a maximum of 1,000 draw entries are allowed per account per draw).",
how it works on ghina salary account,
how it works ghina salary account,
tell me how Ghina salary account Works,
can you help me with information on how Ghina salary account works,
please provide details on how Ghina salary account works,
can you help me with information on how it works of ghina salary account,
i am interested in how it works of ghina salary account,
tell me about how it works of ghina salary account,
i want to know how it works of ghina salary account,
where can i find info on how it works of ghina salary account,
I want to know about how it works of ghina salary account,
show me how it works of ghina salary account,
please provide info on how it works of ghina salary account,
how it works of ghina salary account,
give me how it works of ghina salary account,
i am looking for how it works of ghina salary account,
Where is the info on how it works of ghina salary account,
"Open a Ghina Salary Account; transfer your salary (minimum AED 8,000) to ADIB. Maintain an average monthly balance of AED 20,000 to get your first Ghina draw entry. Get an extra Ghina draw entry every month for every AED 20,000 average monthly balance in your Ghina Salary Account. If the monthly average balance of the Ghina Salary Account falls below AED 20,000, then the Account Holder will lose all the collected Ghina draw entries and Ghina welcome draw entry. A new Ghina salary draw entry calculation cycle will start accordingly. The Account Holder should at least have four Ghina draw entries to enter the Ghina grand draw, (a maximum of 1,000 draw entries are allowed per account per draw). All Ghina draw entries will expire immediately/ re-set to zero upon their participation in the Ghina grand draw ",
I want to know how i can reinvestment for investment deposit account,
looking for investment deposit account reinvestment,
 how to reinvestment in investment deposit account,
Want info on how to reinvestment in investment deposit account,
can you show me how i can reinvestment in investment deposit account,
can you give me info on reinvestment of my investment deposit account,
Want info on how to reinvestment of investment deposit account,
show me how i can investment deposit account reinvestment,
how to reinvestment investment deposit account,
can you help me with investment deposit account reinvestment,
please give me details of how i can investment deposit account reinvestment,
can you show me how i can investment deposit account reinvestment,
what should i do to investment deposit account reinvestment,
please tell me about how can i reinvestment for investment deposit account,
how to investment deposit account reinvestment,
I want reinvestment of investment deposit account,
investment deposit account reinvestment,
give me investment deposit account reinvestment,
"Upon completion of the investment period, the amount is reinvested and you can choose to either transfer the distributed profit to an account specified by you or add up the distributed profits and the actual amount and invest it again. ",
I want reinvestment options of investment deposit account,
I want to know how to reinvestment options for investment deposit account,
 what are the reinvestment options for investment deposit account,
looking for investment deposit account reinvestment options,
show me options on how i can make reinvestment in investment deposit account,
info on investment deposit account reinvestment options,
please tell me about reinvestment options for investment deposit account,
can you show me how i can investment deposit account reinvestment options,
looking for investment deposit account reinvestment options,
investment deposit account reinvestment options,
Want info on reinvestment options of investment deposit account,
what are the reinvestment options investment deposit account,
can you help me with investment deposit account reinvestment options,
what should i do to investment deposit account reinvestment options,
can you give me info on reinvestment options of my investment deposit account,
please give me details of how i can investment deposit account reinvestment options,
show me how i can investment deposit account reinvestment options,
give me investment deposit account reinvestment options,
"Upon completion of the investment period, the amount is reinvested and you can choose to either transfer the distributed profit to an account specified by you or add up the distributed profits and the actual amount and invest it again. This investment account is based on the Islamic principle of Mudaraba where you share profits and bear losses as stipulated in the Banking Service Agreement.",
"You can choose to invest with us and claim profits every one, three, six, nine or twelve months. ",
can you help me with investment deposit account investment duration,
"You can choose to invest with us and claim profits every one, three, six, nine or twelve months. ",
"Upon completion of the investment period, the amount is reinvested and you can choose to either transfer the distributed profit to an account specified by you or add up the distributed profits and the actual amount and invest it again. This investment account is based on the Islamic principle of Mudaraba where you share profits and bear losses as stipulated in the Banking Service Agreement.",
please give me details of how i can investment deposit account investment duration,
what is the investment duration of investment deposit account,
Want info on investment duration of investment deposit account,
please give me details of investment duration of investment deposit account,
can you show me how i can investment deposit account investment duration,
I want to know how to investment duration for investment deposit account,
I want investment duration of investment deposit account,
what should i do to investment deposit account investment duration,
looking for investment deposit account investment duration,
what is the investment duration investment deposit account,
please tell me about investment duration for investment deposit account,
info on investment deposit account investment duration,
give me investment deposit account investment duration,
show me how i can investment deposit account reinvestment duration,
Want info on investment duration of investment deposit account,
can you give me info on investment duration of my investment deposit account,
investment deposit account investment duration,
"You can choose to invest with us and claim profits every one, three, six, nine or twelve months. ",
-,
"-,
",
