{
  "type": "service_account",
  "project_id": "bbuddy",
  "private_key_id": "0dc5bc800e8aec9318a3f9b97db3d60921bad55e",
  "private_key": "-----BEGIN PRIVATE KEY-----\nMIIEvQIBADANBgkqhkiG9w0BAQEFAASCBKcwggSjAgEAAoIBAQDkzJwR2vr0+CnT\nWuNg6rXB1ugoSTzxQF69Fufa4B2L5cL1EZ4U6BBzkNYUxF3V87AKZq4IzP1zJrTa\nPyLnLcteyXprHf+rzlZ+oSJp0YmVf96MCjoafguLGa00JXgVNnu6KM1E9VY18tAA\nNfz7yMT3ai0/iEGboeoqW3KHVPDN9HnlqYqR9FeVkqGnVM9ZV+vxWKKvaQYvbVIB\nugXg0lbKeqqIBuPLeskx/SXBJmBtCqBk3HcC9agGrWcqge0oFpOuhk+dbUVxkbUx\naiWzEddIfcRdtcsKXhv5YZ8Mmj1Qz4BU188xBjblLcwBZS/x8MPWA2sW1gRx64JY\nWGH+Zs+bAgMBAAECggEAAwyManZ/q8vpZaK5E7R9BSgzptCkwTFuDTRSlRdWNFHZ\nTy/Bap6fFFxSZgbgvq0XdmiXvv3ZfDxuK46s1eX8Zy3ldatDB8JPGg7CFtvqfRoJ\nWGiNDYd4VlbaeNNbSatd2JeadmXdJwjAsLW+VK4SnL7iaQ2wuGuVvuzmn5rs0SnI\no7VR29h+APPIXgiXNu8rieDCYM11kOO1AdVnKA+9w+y2gfB3SHqZcszLOisDafYx\nTwMOmHO+qmdcR30msILllsMBxafTr5HefRW+2PnwZyH2ANbISxDGc/P3YbvkFUg4\nb6Jc22b7fxYFz6cGj0jMqW/hM6uOalDiOMrLbJIC1QKBgQD60iHcsFdYU3O+2Hcl\nRcb8TJ3RC5ZQCs601tfbLrksFm37iQlUXIN9c3ytXzouLGPJdbxh81YyAiQSAd8z\n3WZLnPiaYCbLQMtS62HCDCHQCNP4Cq3x7N2ngUuGcgNi8zOPWBg2/78gxToGRNSr\n3ibr38wLLMfaIw1Gp55brww+rQKBgQDphhGdgHH5KS8k8KEKgZVcoPp6FURbDCXL\nV9y0fonxnx5f3xGjAUoE9rsrneEYsgmlpo3jP6MRz26QJCzrmSg5ApOEw4m2JK2T\nuE11zXDkCDgscXPYfWU1zL0JF+xvc3u9Gv+6WOVsPZ1fnbV95MifwnfXePB43DuP\neLxOZQr4ZwKBgG161yj7F8UH+BevaKIuSOLLln8urZeWgA9TT7juNglWaP9IG3hl\nQUe65wrN7BlHau7+oxGmI1OEt7Xcd06uLv6GL8VCfuxtBdLVxz/qB8BEejFkh/R3\nTXDV8N9oWK4SNck1zKwFCaoGLIOb+7BhMV/3uZqPG1TNw/e5JlgimhepAoGBAIiQ\nhQCsuvpRIWbi6eqw+V4gLhrzEPSF2Bxgl4tebOFGgobidvfyqwzYFYFeZOMCSy36\nhwOclYq22hulbDeja6hbX1XG3GQOcwvuPi5kJF7Wh7NF7c9vFZ8uymXk/bn3uSdQ\nALlDf3ebWMsv+ZFUGBeFrHvwGAE2Gga/PrBB2vaFAoGABQeyRf17dUtdWaaw6iOT\nYq6jXImM0rKLnufWOafwnBPTYvFKtpejLcUhc2lqXiVEWEkRK3hKqI9MWSX54sLz\nfPWbmEVOHqOs6ZP7hm+uTbrCtOY25KinqWOoOVzFqn2Nx0tgPpWb6GnyOXqIAqMF\nez/usVXjVZXuKVL5ATFA6Fo=\n-----END PRIVATE KEY-----\n",
  "client_email": "ashu-196@bbuddy.iam.gserviceaccount.com",
  "client_id": "113722449597146547519",
  "auth_uri": "https://accounts.google.com/o/oauth2/auth",
  "token_uri": "https://oauth2.googleapis.com/token",
  "auth_provider_x509_cert_url": "https://www.googleapis.com/oauth2/v1/certs",
  "client_x509_cert_url": "https://www.googleapis.com/robot/v1/metadata/x509/ashu-196%40bbuddy.iam.gserviceaccount.com"
}
